{
 "1": {
  "Username": "fjolla", 
  "Password": "f", 
  "Surname": "Hasani", 
  "Name": "Fjolla", 
  "Email": "fjollahasani@gmail.com"
 }, 
 "3": {
  "Username": "drita", 
  "Password": "d", 
  "Surname": "d", 
  "Name": "d", 
  "Email": "d"
 }, 
 "2": {
  "Username": "Lira", 
  "Password": "0", 
  "Surname": "Gashi", 
  "Name": "Lira", 
  "Email": "lira.gashi@gmail.com"
 }
}